STAT-627 Assignment 4
…
Display the each penalty on rmse and rsq, respectively.

tune_res %>%
  collect_metrics()

## # A tibble: 100 x 7
##      penalty .metric .estimator  mean     n std_err .config              
##        <dbl> <chr>   <chr>      <dbl> <int>   <dbl> <chr>                
##  1 0.00001   rmse    standard   4.02     10  0.317  Preprocessor1_Model01
##  2 0.00001   rsq     standard   0.291    10  0.0188 Preprocessor1_Model01
##  3 0.0000126 rmse    standard   4.02     10  0.317  Preprocessor1_Model02
##  4 0.0000126 rsq     standard   0.291    10  0.0188 Preprocessor1_Model02
##  5 0.0000160 rmse    standard   4.02     10  0.317  Preprocessor1_Model03
##  6 0.0000160 rsq     standard   0.291    10  0.0188 Preprocessor1_Model03
##  7 0.0000202 rmse    standard   4.02     10  0.317  Preprocessor1_Model04
##  8 0.0000202 rsq     standard   0.291    10  0.0188 Preprocessor1_Model04
##  9 0.0000256 rmse    standard   4.02     10  0.317  Preprocessor1_Model05
## 10 0.0000256 rsq     standard   0.291    10  0.0188 Preprocessor1_Model05
## #  with 90 more rows
…
