STAT-627 Assignment 5
…
7.4 Recipe and Workflow

rec_Boston <- recipe(medv ~ ., data = Boston_train)
rf_wf <- workflow() %>%
  add_recipe(rec_Boston) %>%
  add_model(rand_forest_randomForest_spec)

Set the minimum node size to anywhere between 2 and 40 to find the best value using the algorithm.

param_grid <- grid_regular(min_n(), levels = 30)
param_grid

## # A tibble: 30 x 1
##    min_n
##    <int>
##  1     2
##  2     3
##  3     4
##  4     5
##  5     7
##  6     8
##  7     9
##  8    11
##  9    12
## 10    13
## #  with 20 more rows
…
