K-means Clustering
…
glance() shows the simple over view of the model.

glance(pen2_kmeans)

## # A tibble: 1 x 4
##    totss tot.withinss betweenss  iter
##    <dbl>        <dbl>     <dbl> <int>
## 1 11494.        2317.     9177.     2

augment() saves the results in the existing data set, automatically generating a new column.

augment(pen2_kmeans, data = pen2)

## # A tibble: 342 x 3
##    bill_length_mm bill_depth_mm .cluster
##             <dbl>         <dbl> <fct>   
##  1           39.1          18.7 3       
##  2           39.5          17.4 3       
##  3           40.3          18   3       
##  4           36.7          19.3 3       
##  5           39.3          20.6 3       
##  6           38.9          17.8 3       
##  7           39.2          19.6 3       
##  8           34.1          18.1 3       
##  9           42            20.2 3       
## 10           37.8          17.1 3       
## #  with 332 more rows
…
