Shrinkage and Hyperparameter Tuning
…
# penalty_grid <- grid_regular(list(p1 = threshold(), p2 = threshold()), levels = 10, size = 100)
# grid_max_entropy()
#penalty_grid %>%
  #ggplot(aes(p1, p2)) +
  # geom_point()
# grid_max_entropy: try to not have overlapping parts
penalty_grid <- grid_regular(penalty(range = c(0, 5)), levels = 100)

Show the penalty values with descending order

penalty_grid %>%
  arrange(desc(penalty))

## # A tibble: 100 x 1
##    penalty
##      <dbl>
##  1 100000 
##  2  89022.
##  3  79248.
##  4  70548.
##  5  62803.
##  6  55908.
##  7  49770.
##  8  44306.
##  9  39442.
## 10  35112.
## #  with 90 more rows
…
Display the each penalty on rmse and rsq, respectively.

tune_res %>%
  collect_metrics()

## # A tibble: 200 x 7
##    penalty .metric .estimator    mean     n std_err .config               
##      <dbl> <chr>   <chr>        <dbl> <int>   <dbl> <chr>                 
##  1    1    rmse    standard   360.       10 35.8    Preprocessor1_Model001
##  2    1    rsq     standard     0.415    10  0.0533 Preprocessor1_Model001
##  3    1.12 rmse    standard   360.       10 35.8    Preprocessor1_Model002
##  4    1.12 rsq     standard     0.415    10  0.0533 Preprocessor1_Model002
##  5    1.26 rmse    standard   360.       10 35.8    Preprocessor1_Model003
##  6    1.26 rsq     standard     0.415    10  0.0533 Preprocessor1_Model003
##  7    1.42 rmse    standard   360.       10 35.8    Preprocessor1_Model004
##  8    1.42 rsq     standard     0.415    10  0.0533 Preprocessor1_Model004
##  9    1.59 rmse    standard   360.       10 35.8    Preprocessor1_Model005
## 10    1.59 rsq     standard     0.415    10  0.0533 Preprocessor1_Model005
## #  with 190 more rows
…
