PCA in the tidyverse Framework
…
tidy(matrix = "loadings") returns from the principle components space back into the original space. That is, return the rotation matrix.

concrete_pca %>%
  tidy(matrix = "loadings") # v", "rotation", "loadings" or "variables":

## # A tibble: 64 x 3
##    column                PC   value
##    <chr>              <dbl>   <dbl>
##  1 cement                 1  0.0984
##  2 cement                 2 -0.114 
##  3 cement                 3  0.814 
##  4 cement                 4  0.0543
##  5 cement                 5  0.148 
##  6 cement                 6  0.203 
##  7 cement                 7  0.222 
##  8 cement                 8  0.446 
##  9 blast_furnace_slag     1  0.177 
## 10 blast_furnace_slag     2  0.686 
## #  with 54 more rows
…
