Spline
…
Yunting Chiu

2021-06-19

We will use the ames data set from the modeldata library. It can be loaded using the following code

Ames Housing Data

library(tidymodels)
library(tidyverse)
data("ames")
ames

## # A tibble: 2,930 x 74
##    MS_SubClass      MS_Zoning    Lot_Frontage Lot_Area Street Alley   Lot_Shape 
##  * <fct>            <fct>               <dbl>    <int> <fct>  <fct>   <fct>     
##  1 One_Story_1946_ Residential          141    31770 Pave   No_All Slightly_
##  2 One_Story_1946_ Residential           80    11622 Pave   No_All Regular   
##  3 One_Story_1946_ Residential           81    14267 Pave   No_All Slightly_
##  4 One_Story_1946_ Residential           93    11160 Pave   No_All Regular   
##  5 Two_Story_1946_ Residential           74    13830 Pave   No_All Slightly_
##  6 Two_Story_1946_ Residential           78     9978 Pave   No_All Slightly_
##  7 One_Story_PUD_1 Residential           41     4920 Pave   No_All Regular   
##  8 One_Story_PUD_1 Residential           43     5005 Pave   No_All Slightly_
##  9 One_Story_PUD_1 Residential           39     5389 Pave   No_All Slightly_
## 10 Two_Story_1946_ Residential           60     7500 Pave   No_All Regular   
## #  with 2,920 more rows, and 67 more variables: Land_Contour <fct>,
## #   Utilities <fct>, Lot_Config <fct>, Land_Slope <fct>, Neighborhood <fct>,
## #   Condition_1 <fct>, Condition_2 <fct>, Bldg_Type <fct>, House_Style <fct>,
## #   Overall_Cond <fct>, Year_Built <int>, Year_Remod_Add <int>,
## #   Roof_Style <fct>, Roof_Matl <fct>, Exterior_1st <fct>, Exterior_2nd <fct>,
## #   Mas_Vnr_Type <fct>, Mas_Vnr_Area <dbl>, Exter_Cond <fct>, Foundation <fct>,
## #   Bsmt_Cond <fct>, Bsmt_Exposure <fct>, BsmtFin_Type_1 <fct>,
## #   BsmtFin_SF_1 <dbl>, BsmtFin_Type_2 <fct>, BsmtFin_SF_2 <dbl>,
## #   Bsmt_Unf_SF <dbl>, Total_Bsmt_SF <dbl>, Heating <fct>, Heating_QC <fct>,
…
